advanced • modelsummary
…
Two important things to note. First, the methods are named tidy.MCMCglmm and glance.MCMCglmm because the model object I am trying to summarize is of class MCMCglmm. You can find the class of a model by running: class(model).

Second, in the example above, we used the statistic = 'conf.int' argument. This is because the tidy method produces conf.low and conf.high columns. In most cases, users will define std.error column in their custom tidy methods, so the statistic argument will need to be adjusted.

If you create new tidy and glance methods, please consider contributing them to broom so that the rest of the community can benefit from your work: https://github.com/tidymodels/broom

Customizing existing models

Raw data

The gt package allows a bunch more customization and styling. Power users can use modelsummary’s extract function to produce a tibble which can easily be fed into gt.

> modelsummary::extract(models)
# A tibble: 21 x 8
   group     term        statistic `OLS 1` `NBin 1` `OLS 2` `NBin 2` `Logit 1`
   <chr>     <chr>       <chr>     <chr>   <chr>    <chr>   <chr>    <chr>
 1 estimates (Intercept) estimate  64.114  4.218    57.331  4.384    1.006
 2 estimates (Intercept) statistic (5.247) (0.144)  (8.315) (0.233)  (0.710)
 3 estimates Crime_prop  estimate  -0.002  -0.000   -0.002  -0.000   -0.000
 4 estimates Crime_prop  statistic (0.001) (0.000)  (0.001) (0.000)  (0.000)
 5 estimates Infants     estimate  -0.001  ""       0.000   ""       -0.000
 6 estimates Infants     statistic (0.000) ""       (0.000) ""       (0.000)
 7 estimates Donations   estimate  ""      -0.000   ""      -0.000   ""
 8 estimates Donations   statistic ""      (0.000)  ""      (0.000)  ""
 9 gof       R2          ""        0.237   ""       0.073   ""       ""
10 gof       Adj.R2      ""        0.218   ""       0.051   ""       ""
# … with 11 more rows
…
